Laboratorio3/saiftest/inccomp.vcd
$date
	Tue Apr 28 08:57:42 2020
$end
$version
	ModelSim Version 6.5c
$end
$timescale
	1ps
$end
$scope module tbinccomp $end
$scope module DUT $end
$var wire 1 ! C [7] $end
$var wire 1 " C [6] $end
$var wire 1 # C [5] $end
$var wire 1 $ C [4] $end
$var wire 1 % C [3] $end
$var wire 1 & C [2] $end
$var wire 1 ' C [1] $end
$var wire 1 ( C [0] $end
$var wire 1 ) ck $end
$var wire 1 * rst $end
$var wire 1 + INCA $end
$var wire 1 , INCB $end
$var wire 1 - N8 $end
$var wire 1 . N9 $end
$var wire 1 / N10 $end
$var wire 1 0 N11 $end
$var wire 1 1 N12 $end
$var wire 1 2 N13 $end
$var wire 1 3 N14 $end
$var wire 1 4 N15 $end
$var wire 1 5 N33 $end
$var wire 1 6 N34 $end
$var wire 1 7 N35 $end
$var wire 1 8 N36 $end
$var wire 1 9 N37 $end
$var wire 1 : N38 $end
$var wire 1 ; N39 $end
$var wire 1 < N40 $end
$var wire 1 = lt_gt_37_B_0_ $end
$var wire 1 > lt_gt_37_B_1_ $end
$var wire 1 ? lt_gt_37_B_2_ $end
$var wire 1 @ lt_gt_37_B_3_ $end
$var wire 1 A lt_gt_37_B_4_ $end
$var wire 1 B lt_gt_37_B_5_ $end
$var wire 1 C lt_gt_37_B_6_ $end
$var wire 1 D lt_gt_37_B_7_ $end
$var wire 1 E lt_gt_37_A_0_ $end
$var wire 1 F lt_gt_37_A_1_ $end
$var wire 1 G lt_gt_37_A_2_ $end
$var wire 1 H lt_gt_37_A_3_ $end
$var wire 1 I lt_gt_37_A_4_ $end
$var wire 1 J lt_gt_37_A_5_ $end
$var wire 1 K lt_gt_37_A_6_ $end
$var wire 1 L lt_gt_37_A_7_ $end
$var wire 1 M n63 $end
$var wire 1 N n64 $end
$var wire 1 O n65 $end
$var wire 1 P n66 $end
$var wire 1 Q n67 $end
$var wire 1 R n68 $end
$var wire 1 S n69 $end
$var wire 1 T n70 $end
$var wire 1 U n71 $end
$var wire 1 V n72 $end
$var wire 1 W n73 $end
$var wire 1 X n74 $end
$var wire 1 Y n75 $end
$var wire 1 Z n76 $end
$var wire 1 [ n77 $end
$var wire 1 \ n78 $end
$var wire 1 ] n79 $end
$var wire 1 ^ n80 $end
$var wire 1 _ n81 $end
$var wire 1 ` n82 $end
$var wire 1 a n83 $end
$var wire 1 b n84 $end
$var wire 1 c n85 $end
$var wire 1 d n86 $end
$var wire 1 e n87 $end
$var wire 1 f n88 $end
$var wire 1 g n89 $end
$var wire 1 h n90 $end
$var wire 1 i n91 $end
$var wire 1 j n92 $end
$var wire 1 k n93 $end
$var wire 1 l n94 $end
$var wire 1 m syncha [7] $end
$var wire 1 n syncha [6] $end
$var wire 1 o syncha [5] $end
$var wire 1 p syncha [4] $end
$var wire 1 q syncha [3] $end
$var wire 1 r syncha [2] $end
$var wire 1 s syncha [1] $end
$var wire 1 t syncha [0] $end
$var wire 1 u synchb [7] $end
$var wire 1 v synchb [6] $end
$var wire 1 w synchb [5] $end
$var wire 1 x synchb [4] $end
$var wire 1 y synchb [3] $end
$var wire 1 z synchb [2] $end
$var wire 1 { synchb [1] $end
$var wire 1 | synchb [0] $end
$var wire 1 } r68_carry [7] $end
$var wire 1 ~ r68_carry [6] $end
$var wire 1 !! r68_carry [5] $end
$var wire 1 "! r68_carry [4] $end
$var wire 1 #! r68_carry [3] $end
$var wire 1 $! r68_carry [2] $end
$var wire 1 %! r67_carry [7] $end
$var wire 1 &! r67_carry [6] $end
$var wire 1 '! r67_carry [5] $end
$var wire 1 (! r67_carry [4] $end
$var wire 1 )! r67_carry [3] $end
$var wire 1 *! r67_carry [2] $end
$upscope $end
$upscope $end
$enddefinitions $end
#0
$dumpvars
x(
x'
x&
x%
x$
x#
x"
x!
x-
x.
x/
x0
x1
x2
x3
x4
x5
x6
x7
x8
x9
x:
x;
x<
x=
x>
x?
x@
xA
xB
xC
xD
xE
xF
xG
xH
xI
xJ
xK
xL
xM
xN
xO
xP
xQ
xR
xS
xT
xU
xV
xW
xX
xY
xZ
x[
x\
x]
x^
x_
x`
xa
xb
xc
xd
xe
xf
xg
xh
xi
xj
xk
xl
xt
xs
xr
xq
xp
xo
xn
xm
x|
x{
xz
xy
xx
xw
xv
xu
x$!
x#!
x"!
x!!
x~
x}
x*!
x)!
x(!
x'!
x&!
x%!
0,
0+
1*
1)
$end
#87
0d
#174
0!
0"
0#
0$
0%
0&
0'
0(
#183
0u
0m
#184
0v
0w
0x
0y
0z
0{
0n
0o
0p
0q
0r
0s
#189
0|
0t
#218
15
1-
#240
0}
0%!
#242
0~
0!!
0"!
0#!
0$!
0&!
0'!
0(!
0)!
0*!
#258
0D
#259
0>
#262
0L
#264
0K
0J
0I
0H
0G
0F
0C
0B
0A
0@
0?
#266
0=
#271
0E
#274
06
0.
#295
1N
#297
1U
1[
1a
1S
1X
1^
#298
1Q
1Z
1W
1]
#303
1c
#304
0<
04
1b
#319
0;
0:
09
08
07
03
02
01
00
0/
#328
0`
#333
0e
#335
0k
0f
0g
0h
0i
0j
#342
0l
#385
1_
#437
0\
#475
1Y
#527
0V
#564
1T
#598
0R
#632
1P
#656
0O
#798
1M
#2500
0)
#5000
1)
#7000
0*
#7159
1d
#7500
0)
#10000
1)
#12000
1+
#12062
1=
#12091
0c
#12141
1`
#12186
0_
#12223
1\
#12275
0Y
#12313
1V
#12350
0T
#12383
1R
#12429
0P
#12459
1O
#12500
0)
#12505
0M
#12592
1l
#15000
1)
#15118
1(
#15135
1t
#15159
0-
#15210
1.
#15232
0=
#15265
1>
#15269
1c
#15294
0`
#15301
0l
#15312
1k
#17500
0)
#20000
1)
#20104
0(
#20117
0t
#20118
1'
#20130
1s
#20146
1-
#20198
1=
#20227
0c
#20245
1l
#20277
1`
#22500
0)
#25000
1)
#25118
1(
#25135
1t
#25159
0-
#25180
0.
#25204
1*!
#25232
0=
#25254
0>
#25269
1c
#25271
1/
#25294
0`
#25301
0l
#25323
0k
#25332
1?
#25351
1_
#25359
0^
#25381
1j
#27500
0)
#28000
1,
#28067
1E
#30000
1)
#30104
0'
0(
#30113
0s
#30117
0t
#30118
1&
#30130
1r
#30135
1|
#30146
1-
#30159
05
#30170
0/
#30171
0*!
#30193
1)!
#30198
1=
#30210
16
#30222
1/
#30227
0c
#30228
0)!
#30236
0E
#30245
1l
#30271
1F
#32500
0)
#35000
1)
#35117
0|
#35118
1(
#35130
1{
#35135
1t
#35146
15
#35159
0-
#35203
1E
#35210
1.
#35232
0=
#35237
0b
#35265
1>
#35269
1c
#35301
0l
#35312
1k
#37500
0)
#40000
1)
#40104
0(
#40117
0t
#40118
1'
#40130
1s
#40135
1|
#40146
1-
#40159
05
#40180
06
#40198
1=
#40204
1$!
#40227
0c
#40236
0E
#40245
1l
#40259
0F
#40271
17
#40284
1b
#40324
0_
#40330
1`
#40332
1G
#40359
0a
#42500
0)
#45000
1)
#45113
0{
#45117
0|
#45118
1(
#45130
1z
#45135
1t
#45146
15
#45159
0-
#45170
07
#45171
0$!
#45180
0.
#45193
1#!
#45203
1E
#45204
1*!
#45222
17
#45228
0#!
#45232
0=
#45234
0`
#45242
0/
#45254
0>
#45265
1)!
#45269
1c
#45301
0l
#45320
1_
#45321
0?
#45323
0k
#45332
10
#45354
1^
#45367
0\
#45392
0j
#45393
1@
#45405
1Y
#45420
0]
#45442
1i
#45457
0V
#45483
1\
#45494
1T
#45528
0Y
0R
#45562
1P
#45566
1V
#45586
0O
#45603
0T
#45636
1R
#45682
0P
#45712
1O
#47500
0)
#50000
0+
1)
#50078
1>
#50079
1=
#50081
0@
#50084
1?
#50104
0&
0'
0(
#50108
0c
#50111
0^
#50113
0r
0s
#50115
1]
#50117
0t
#50118
1%
#50125
1k
#50126
1l
#50127
0_
#50130
1q
#50133
1j
#50135
1|
#50146
1-
#50152
0i
#50159
05
#50163
1/
#50170
00
#50171
0)!
0*!
#50188
0>
#50192
1@
#50193
0?
1(!
#50194
0=
#50210
16
#50219
0]
#50222
10
#50226
1^
#50228
0(!
#50231
1c
#50236
0E
#50241
1i
#50248
0/
#50254
1_
#50257
0k
#50263
0l
#50264
0j
#50271
1F
#50310
0b
#52500
0)
#55000
1)
#55117
0|
#55130
1{
#55146
15
#55203
1E
#57500
0)
#60000
1)
#60135
1|
#60159
05
#60180
06
#60204
1$!
#60236
0E
#60242
07
#60259
0F
#60265
1#!
#60299
1b
#60321
0G
#60332
18
#60354
1a
#60393
1H
#60420
0[
#60441
0\
#60479
1Y
#60531
0V
#60568
1T
#60602
0R
#60636
1P
#60660
0O
#60802
1M
#62500
0)
#65000
1)
#65113
0z
0{
#65117
0|
#65130
1y
#65146
15
#65163
17
#65170
08
#65171
0#!
0$!
#65193
1"!
#65203
1E
#65222
18
#65224
1G
#65228
0"!
#65248
07
#65251
0a
#65252
1l
#65273
1j
#65327
0G
#65360
1a
#65398
0j
#67500
0)
#70000
1)
#70118
1(
#70135
1|
#70159
05
#70210
16
#70236
0E
#70271
1F
#70307
0l
#70310
0b
#70320
1k
#72500
0)
#75000
1)
#75104
0(
#75117
0|
#75118
1'
#75130
1{
#75146
15
#75203
1E
#75252
1l
#77500
0)
#80000
1)
#80118
1(
#80135
1|
#80159
05
#80180
06
#80204
1$!
#80236
0E
#80259
0F
#80271
17
#80299
1b
#80307
0l
#80330
0k
#80332
1G
#80359
0a
#80381
1j
#82500
0)
#85000
1)
#85104
0'
0(
#85113
0{
#85117
0|
#85118
1&
#85130
1z
#85146
15
#85170
07
#85171
0$!
#85193
1#!
#85203
1E
#85222
17
#85228
0#!
#85231
08
#85252
1l
#85279
18
#87500
0)
#90000
1)
#90118
1(
#90135
1|
#90159
05
#90210
16
#90236
0E
#90271
1F
#90307
0l
#90310
0b
#90320
1k
#92500
0)
#95000
1)
#95104
0(
#95117
0|
#95118
1'
#95130
1{
#95146
15
#95203
1E
#95252
1l
#97500
0)
#100000
1)
#100118
1(
#100135
1|
#100159
05
#100180
06
#100204
1$!
#100236
0E
#100242
07
#100259
0F
#100265
1#!
#100299
1b
#100303
08
#100307
0l
#100321
0G
#100326
1"!
#100330
0k
#100354
1a
#100382
0H
#100392
0j
#100393
19
#100415
1[
#100447
1\
#100453
0i
#100454
1I
#100481
0Z
#100492
0Y
#100503
1h
#100531
1V
#100544
1Y
#100568
0T
#100590
0V
#100601
1R
#100627
1T
#100647
0P
#100661
0R
#100677
1O
#100695
1P
#100719
0O
#100723
0M
#100808
0h
#100810
1i
#100861
1M
#100935
1h
#100950
0i
#102500
0)
#105000
1)
#105104
0%
0&
0'
0(
#105113
0y
0z
0{
#105117
0|
#105118
1$
#105130
1x
#105146
15
#105163
18
17
#105170
09
#105171
0"!
0#!
0$!
#105193
1!!
#105203
1E
#105222
19
#105224
1H
1G
#105228
0!!
#105248
08
07
#105251
0[
0a
#105252
1l
#105266
0\
#105273
1i
1j
#105327
0H
0G
#105360
1[
1a
#105392
1\
#105398
0i
0j
#107500
0)
#110000
1)
#110118
1(
#110135
1|
#110159
05
#110210
16
#110236
0E
#110271
1F
#110307
0l
#110310
0b
#110320
1k
#112500
0)
#115000
1)
#115104
0(
#115117
0|
#115118
1'
#115130
1{
#115146
15
#115203
1E
#115252
1l
#117500
0)
#120000
1)
#120118
1(
#120135
1|
#120159
05
#120180
06
#120204
1$!
#120236
0E
#120259
0F
#120271
17
#120299
1b
#120307
0l
#120330
0k
#120332
1G
#120359
0a
#120381
1j
#122500
0)
#125000
1)
#125104
0'
0(
#125113
0{
#125117
0|
#125118
1&
#125130
1z
#125146
15
#125170
07
#125171
0$!
#125193
1#!
#125203
1E
#125222
17
#125228
0#!
#125252
1l
#127500
0)
#130000
1)
#130118
1(
#130135
1|
#130159
05
#130210
16
#130236
0E
#130271
1F
#130307
0l
#130310
0b
#130320
1k
#132500
0)
#135000
1)
#135104
0(
#135117
0|
#135118
1'
#135130
1{
#135146
15
#135203
1E
#135252
1l
#137500
0)
#140000
1)
#140118
1(
#140135
1|
#140159
05
#140180
06
#140204
1$!
#140236
0E
#140242
07
#140259
0F
#140265
1#!
#140299
1b
#140307
0l
#140321
0G
#140330
0k
#140332
18
#140354
1a
#140392
0j
#140393
1H
#140420
0[
#140441
0\
#140442
1i
#142500
0)
#145000
1)
#145104
0&
0'
0(
#145113
0z
0{
#145117
0|
#145118
1%
#145130
1y
#145146
15
#145163
17
#145170
08
#145171
0#!
0$!
#145193
1"!
#145203
1E
#145222
18
#145224
1G
#145228
0"!
#145231
09
#145248
07
#145251
0a
#145252
1l
#145273
1j
#145279
19
#145327
0G
#145360
1a
#145398
0j
#147500
0)
#150000
1)
#150118
1(
#150135
1|
#150159
05
#150210
16
#150236
0E
#150271
1F
#150307
0l
#150310
0b
#150320
1k
#152500
0)
#155000
1)
#155104
0(
#155117
0|
#155118
1'
#155130
1{
#155146
15
#155203
1E
#155252
1l
#157500
0)
#160000
1)
#160118
1(
#160135
1|
#160159
05
#160180
06
#160204
1$!
#160236
0E
#160259
0F
#160271
17
#160299
1b
#160307
0l
#160330
0k
#160332
1G
#160359
0a
#160381
1j
#162500
0)
#165000
1)
#165104
0'
0(
#165113
0{
#165117
0|
#165118
1&
#165130
1z
#165146
15
#165170
07
#165171
0$!
#165193
1#!
#165203
1E
#165222
17
#165228
0#!
#165231
08
#165252
1l
#165279
18
#167500
0)
#170000
1)
#170118
1(
#170135
1|
#170159
05
#170210
16
#170236
0E
#170271
1F
#170307
0l
#170310
0b
#170320
1k
#172500
0)
#175000
1)
#175104
0(
#175117
0|
#175118
1'
#175130
1{
#175146
15
#175203
1E
#175252
1l
#177500
0)
#180000
1)
#180118
1(
#180135
1|
#180159
05
#180180
06
#180204
1$!
#180236
0E
#180242
07
#180259
0F
#180265
1#!
#180299
1b
#180303
08
#180307
0l
#180321
0G
#180326
1"!
#180330
0k
#180354
1a
#180364
09
#180382
0H
#180387
1!!
#180392
0j
#180415
1[
#180443
0I
#180447
1\
#180453
0i
#180454
1:
#180477
1Z
#180514
0h
0Y
#180515
1J
#180542
0U
#180552
1V
#180564
1g
#182500
0)
#185000
1)
#185104
0$
0%
0&
0'
0(
#185113
0x
0y
0z
0{
#185117
0|
#185118
1#
#185130
1w
#185146
15
#185163
19
18
17
#185170
0:
#185171
0!!
0"!
0#!
0$!
#185193
1~
#185203
1E
#185222
1:
#185224
1I
1H
1G
#185228
0~
#185248
09
08
07
#185251
0Z
0[
0a
#185252
1l
#185266
0\
#185273
1h
1i
1j
#185311
1Y
#185327
0I
0H
0G
#185349
0V
#185360
1[
1a
#185361
1Z
#185392
1\
#185398
0h
0i
0j
#185437
0Y
#185475
1V
#187500
0)
#190000
1)
#190118
1(
#190135
1|
#190159
05
#190210
16
#190236
0E
#190271
1F
#190307
0l
#190310
0b
#190320
1k
#192500
0)
#195000
1)
#195104
0(
#195117
0|
#195118
1'
#195130
1{
#195146
15
#195203
1E
#195252
1l
#197500
0)
#200000
1)
#200118
1(
#200135
1|
#200159
05
#200180
06
#200204
1$!
#200236
0E
#200259
0F
#200271
17
#200299
1b
#200307
0l
#200330
0k
#200332
1G
#200359
0a
#200381
1j
#202500
0)
#205000
1)
#205104
0'
0(
#205113
0{
#205117
0|
#205118
1&
#205130
1z
#205146
15
#205170
07
#205171
0$!
#205193
1#!
#205203
1E
#205222
17
#205228
0#!
#205252
1l
#207500
0)
#210000
1)
#210118
1(
#210135
1|
#210159
05
#210210
16
#210236
0E
#210271
1F
#210307
0l
#210310
0b
#210320
1k
#212500
0)
#215000
1)
#215104
0(
#215117
0|
#215118
1'
#215130
1{
#215146
15
#215203
1E
#215252
1l
#217500
0)
#220000
1)
#220118
1(
#220135
1|
#220159
05
#220180
06
#220204
1$!
#220236
0E
#220242
07
#220259
0F
#220265
1#!
#220299
1b
#220307
0l
#220321
0G
#220330
0k
#220332
18
#220354
1a
#220392
0j
#220393
1H
#220420
0[
#220441
0\
#220442
1i
#220479
1Y
#220522
0V
#222500
0)
#225000
1)
#225104
0&
0'
0(
#225113
0z
0{
#225117
0|
#225118
1%
#225130
1y
#225146
15
#225163
17
#225170
08
#225171
0#!
0$!
#225193
1"!
#225203
1E
#225222
18
#225224
1G
#225228
0"!
#225248
07
#225251
0a
#225252
1l
#225273
1j
#225327
0G
#225360
1a
#225398
0j
#227500
0)
#230000
1)
#230118
1(
#230135
1|
#230159
05
#230210
16
#230236
0E
#230271
1F
#230307
0l
#230310
0b
#230320
1k
#232500
0)
#235000
1)
#235104
0(
#235117
0|
#235118
1'
#235130
1{
#235146
15
#235203
1E
#235252
1l
#237500
0)
#240000
1)
#240118
1(
#240135
1|
#240159
05
#240180
06
#240204
1$!
#240236
0E
#240259
0F
#240271
17
#240299
1b
#240307
0l
#240330
0k
#240332
1G
#240359
0a
#240381
1j
#242500
0)
#245000
1)
#245104
0'
0(
#245113
0{
#245117
0|
#245118
1&
#245130
1z
#245146
15
#245170
07
#245171
0$!
#245193
1#!
#245203
1E
#245222
17
#245228
0#!
#245231
08
#245252
1l
#245279
18
#247500
0)
#250000
1)
#250118
1(
#250135
1|
#250159
05
#250210
16
#250236
0E
#250271
1F
#250307
0l
#250310
0b
#250320
1k
#252500
0)
#255000
1)
#255104
0(
#255117
0|
#255118
1'
#255130
1{
#255146
15
#255203
1E
#255252
1l
#257500
0)
#260000
1)
#260118
1(
#260135
1|
#260159
05
#260180
06
#260204
1$!
#260236
0E
#260242
07
#260259
0F
#260265
1#!
#260299
1b
#260303
08
#260307
0l
#260321
0G
#260326
1"!
#260330
0k
#260354
1a
#260382
0H
#260392
0j
#260393
19
#260415
1[
#260447
1\
#260453
0i
#260454
1I
#260481
0Z
#260492
0Y
#260503
1h
#260530
1V
#260544
1Y
#260582
0V
#262500
0)
#265000
1)
#265104
0%
0&
0'
0(
#265113
0y
0z
0{
#265117
0|
#265118
1$
#265130
1x
#265146
15
#265163
18
17
#265170
09
#265171
0"!
0#!
0$!
#265193
1!!
#265203
1E
#265222
19
#265224
1H
1G
#265228
0!!
#265231
0:
#265248
08
07
#265251
0[
0a
#265252
1l
#265266
0\
#265273
1i
1j
#265279
1:
#265327
0H
0G
#265360
1[
1a
#265392
1\
#265398
0i
0j
#267500
0)
#270000
1)
#270118
1(
#270135
1|
#270159
05
#270210
16
#270236
0E
#270271
1F
#270307
0l
#270310
0b
#270320
1k
#272500
0)
#275000
1)
#275104
0(
#275117
0|
#275118
1'
#275130
1{
#275146
15
#275203
1E
#275252
1l
#277500
0)
#280000
1)
#280118
1(
#280135
1|
#280159
05
#280180
06
#280204
1$!
#280236
0E
#280259
0F
#280271
17
#280299
1b
#280307
0l
#280330
0k
#280332
1G
#280359
0a
#280381
1j
#282500
0)
#285000
1)
#285104
0'
0(
#285113
0{
#285117
0|
#285118
1&
#285130
1z
#285146
15
#285170
07
#285171
0$!
#285193
1#!
#285203
1E
#285222
17
#285228
0#!
#285252
1l
#287500
0)
#290000
1)
#290118
1(
#290135
1|
#290159
05
#290210
16
#290236
0E
#290271
1F
#290307
0l
#290310
0b
#290320
1k
#292500
0)
#295000
1)
#295104
0(
#295117
0|
#295118
1'
#295130
1{
#295146
15
#295203
1E
#295252
1l
#297500
0)
#300000
1)
#300118
1(
#300135
1|
#300159
05
#300180
06
#300204
1$!
#300236
0E
#300242
07
#300259
0F
#300265
1#!
#300299
1b
#300307
0l
#300321
0G
#300330
0k
#300332
18
#300354
1a
#300392
0j
#300393
1H
#300420
0[
#300441
0\
#300442
1i
#302500
0)
#305000
1)
#305104
0&
0'
0(
#305113
0z
0{
#305117
0|
#305118
1%
#305130
1y
#305146
15
#305163
17
#305170
08
#305171
0#!
0$!
#305193
1"!
#305203
1E
#305222
18
#305224
1G
#305228
0"!
#305231
09
#305248
07
#305251
0a
#305252
1l
#305273
1j
#305279
19
#305327
0G
#305360
1a
#305398
0j
#307500
0)
#310000
1)
#310118
1(
#310135
1|
#310159
05
#310210
16
#310236
0E
#310271
1F
#310307
0l
#310310
0b
#310320
1k
#312500
0)
#315000
1)
#315104
0(
#315117
0|
#315118
1'
#315130
1{
#315146
15
#315203
1E
#315252
1l
#317500
0)
#320000
1)
#320118
1(
#320135
1|
#320159
05
#320180
06
#320204
1$!
#320236
0E
#320259
0F
#320271
17
#320299
1b
#320307
0l
#320330
0k
#320332
1G
#320359
0a
#320381
1j
#322500
0)
#325000
1)
#325104
0'
0(
#325113
0{
#325117
0|
#325118
1&
#325130
1z
#325146
15
#325170
07
#325171
0$!
#325193
1#!
#325203
1E
#325222
17
#325228
0#!
#325231
08
#325252
1l
#325279
18
#327500
0)
#330000
1)
#330118
1(
#330135
1|
#330159
05
#330210
16
#330236
0E
#330271
1F
#330307
0l
#330310
0b
#330320
1k
#332500
0)
#335000
1)
#335104
0(
#335117
0|
#335118
1'
#335130
1{
#335146
15
#335203
1E
#335252
1l
#337500
0)
#340000
1)
#340118
1(
#340135
1|
#340159
05
#340180
06
#340204
1$!
#340236
0E
#340242
07
#340259
0F
#340265
1#!
#340299
1b
#340303
08
#340307
0l
#340321
0G
#340326
1"!
#340330
0k
#340354
1a
#340364
09
#340382
0H
#340387
1!!
#340392
0j
#340415
1[
#340425
0:
#340443
0I
#340447
1\
#340448
1~
#340453
0i
#340477
1Z
#340504
0J
#340514
0h
0Y
#340515
1;
#340537
1U
#340552
1V
#340575
0g
#340576
1K
#340589
0T
#340603
0Q
#340623
1R
#340625
1f
#342500
0)
#345000
1)
#345104
0#
0$
0%
0&
0'
0(
#345113
0w
0x
0y
0z
0{
#345117
0|
#345118
1"
#345130
1v
#345146
15
#345163
1:
19
18
17
#345170
0;
#345171
0~
0!!
0"!
0#!
0$!
#345190
1}
#345203
1E
#345222
1;
#345224
1J
1I
1H
1G
#345226
0}
#345248
0:
09
08
07
#345251
0U
0Z
0[
0a
#345252
1l
#345266
0\
#345273
1g
1h
1i
1j
#345295
1T
#345311
1Y
#345325
0R
#345327
0J
0I
0H
0G
#345349
0V
#345360
1U
1[
1a
#345361
1Z
#345392
1\
#345398
0g
0h
0i
0j
#345437
0Y
#345475
1V
#345512
0T
#345546
1R
#347500
0)
#350000
1)
#350118
1(
#350135
1|
#350159
05
#350210
16
#350236
0E
#350271
1F
#350307
0l
#350310
0b
#350320
1k
#352500
0)
#355000
1)
#355104
0(
#355117
0|
#355118
1'
#355130
1{
#355146
15
#355203
1E
#355252
1l
#357500
0)
#360000
1)
#360118
1(
#360135
1|
#360159
05
#360180
06
#360204
1$!
#360236
0E
#360259
0F
#360271
17
#360299
1b
#360307
0l
#360330
0k
#360332
1G
#360359
0a
#360381
1j
#362500
0)
#365000
1)
#365104
0'
0(
#365113
0{
#365117
0|
#365118
1&
#365130
1z
#365146
15
#365170
07
#365171
0$!
#365193
1#!
#365203
1E
#365222
17
#365228
0#!
#365252
1l
#367500
0)
#370000
1)
#370118
1(
#370135
1|
#370159
05
#370210
16
#370236
0E
#370271
1F
#370307
0l
#370310
0b
#370320
1k
#372500
0)
#375000
1)
#375104
0(
#375117
0|
#375118
1'
#375130
1{
#375146
15
#375203
1E
#375252
1l
#377500
0)
#380000
1)
#380118
1(
#380135
1|
#380159
05
#380180
06
#380204
1$!
#380236
0E
#380242
07
#380259
0F
#380265
1#!
#380299
1b
#380307
0l
#380321
0G
#380330
0k
#380332
18
#380354
1a
#380392
0j
#380393
1H
#380420
0[
#380441
0\
#380442
1i
#380479
1Y
#380531
0V
#380568
1T
#380598
0R
#382500
0)
#385000
1)
#385104
0&
0'
0(
#385113
0z
0{
#385117
0|
#385118
1%
#385130
1y
#385146
15
#385163
17
#385170
08
#385171
0#!
0$!
#385193
1"!
#385203
1E
#385222
18
#385224
1G
#385228
0"!
#385248
07
#385251
0a
#385252
1l
#385273
1j
#385327
0G
#385360
1a
#385398
0j
#387500
0)
#390000
1)
#390118
1(
#390135
1|
#390159
05
#390210
16
#390236
0E
#390271
1F
#390307
0l
#390310
0b
#390320
1k
#392500
0)
#395000
1)
#395104
0(
#395117
0|
#395118
1'
#395130
1{
#395146
15
#395203
1E
#395252
1l
#397500
0)
#400000
1)
#400118
1(
#400135
1|
#400159
05
#400180
06
#400204
1$!
#400236
0E
#400259
0F
#400271
17
#400299
1b
#400307
0l
#400330
0k
#400332
1G
#400359
0a
#400381
1j
#402500
0)
#405000
1)
#405104
0'
0(
#405113
0{
#405117
0|
#405118
1&
#405130
1z
#405146
15
#405170
07
#405171
0$!
#405193
1#!
#405203
1E
#405222
17
#405228
0#!
#405231
08
#405252
1l
#405279
18
#407500
0)
#410000
1)
#410118
1(
#410135
1|
#410159
05
#410210
16
#410236
0E
#410271
1F
#410307
0l
#410310
0b
#410320
1k
#412500
0)
#415000
1)
#415104
0(
#415117
0|
#415118
1'
#415130
1{
#415146
15
#415203
1E
#415252
1l
#417500
0)
#420000
1)
#420118
1(
#420135
1|
#420159
05
#420180
06
#420204
1$!
#420236
0E
#420242
07
#420259
0F
#420265
1#!
#420299
1b
#420303
08
#420307
0l
#420321
0G
#420326
1"!
#420330
0k
#420354
1a
#420382
0H
#420392
0j
#420393
19
#420415
1[
#420447
1\
#420453
0i
#420454
1I
#420481
0Z
#420492
0Y
#420503
1h
#420531
1V
#420544
1Y
#420568
0T
#420590
0V
#420602
1R
#420627
1T
#420657
0R
#422500
0)
#425000
1)
#425104
0%
0&
0'
0(
#425113
0y
0z
0{
#425117
0|
#425118
1$
#425130
1x
#425146
15
#425163
18
17
#425170
09
#425171
0"!
0#!
0$!
#425193
1!!
#425203
1E
#425222
19
#425224
1H
1G
#425228
0!!
#425248
08
07
#425251
0[
0a
#425252
1l
#425266
0\
#425273
1i
1j
#425327
0H
0G
#425360
1[
1a
#425392
1\
#425398
0i
0j
#427500
0)
#430000
1)
#430118
1(
#430135
1|
#430159
05
#430210
16
#430236
0E
#430271
1F
#430307
0l
#430310
0b
#430320
1k
#432500
0)
#435000
1)
#435104
0(
#435117
0|
#435118
1'
#435130
1{
#435146
15
#435203
1E
#435252
1l
#437500
0)
#440000
1)
#440118
1(
#440135
1|
#440159
05
#440180
06
#440204
1$!
#440236
0E
#440259
0F
#440271
17
#440299
1b
#440307
0l
#440330
0k
#440332
1G
#440359
0a
#440381
1j
#442500
0)
#445000
1)
#445104
0'
0(
#445113
0{
#445117
0|
#445118
1&
#445130
1z
#445146
15
#445170
07
#445171
0$!
#445193
1#!
#445203
1E
#445222
17
#445228
0#!
#445252
1l
#447500
0)
#450000
1)
#450118
1(
#450135
1|
#450159
05
#450210
16
#450236
0E
#450271
1F
#450307
0l
#450310
0b
#450320
1k
#452500
0)
#455000
1)
#455104
0(
#455117
0|
#455118
1'
#455130
1{
#455146
15
#455203
1E
#455252
1l
#457500
0)
#460000
1)
#460118
1(
#460135
1|
#460159
05
#460180
06
#460204
1$!
#460236
0E
#460242
07
#460259
0F
#460265
1#!
#460299
1b
#460307
0l
#460321
0G
#460330
0k
#460332
18
#460354
1a
#460392
0j
#460393
1H
#460420
0[
#460441
0\
#460442
1i
#462500
0)
#465000
1)
#465104
0&
0'
0(
#465113
0z
0{
#465117
0|
#465118
1%
#465130
1y
#465146
15
#465163
17
#465170
08
#465171
0#!
0$!
#465193
1"!
#465203
1E
#465222
18
#465224
1G
#465228
0"!
#465231
09
#465248
07
#465251
0a
#465252
1l
#465273
1j
#465279
19
#465327
0G
#465360
1a
#465398
0j
#467500
0)
#470000
1)
#470118
1(
#470135
1|
#470159
05
#470210
16
#470236
0E
#470271
1F
#470307
0l
#470310
0b
#470320
1k
#472500
0)
#475000
1)
#475104
0(
#475117
0|
#475118
1'
#475130
1{
#475146
15
#475203
1E
#475252
1l
#477500
0)
#480000
1)
#480118
1(
#480135
1|
#480159
05
#480180
06
#480204
1$!
#480236
0E
#480259
0F
#480271
17
#480299
1b
#480307
0l
#480330
0k
#480332
1G
#480359
0a
#480381
1j
#482500
0)
#485000
1)
#485104
0'
0(
#485113
0{
#485117
0|
#485118
1&
#485130
1z
#485146
15
#485170
07
#485171
0$!
#485193
1#!
#485203
1E
#485222
17
#485228
0#!
#485231
08
#485252
1l
#485279
18
#487500
0)
#490000
1)
#490118
1(
#490135
1|
#490159
05
#490210
16
#490236
0E
#490271
1F
#490307
0l
#490310
0b
#490320
1k
#492500
0)
#495000
1)
#495104
0(
#495117
0|
#495118
1'
#495130
1{
#495146
15
#495203
1E
#495252
1l
#497500
0)
#500000
1)
#500118
1(
#500135
1|
#500159
05
#500180
06
#500204
1$!
#500236
0E
#500242
07
#500259
0F
#500265
1#!
#500299
1b
#500303
08
#500307
0l
#500321
0G
#500326
1"!
#500330
0k
#500354
1a
#500364
09
#500382
0H
#500387
1!!
#500392
0j
#500415
1[
#500443
0I
#500447
1\
#500453
0i
#500454
1:
#500477
1Z
#500514
0h
0Y
#500515
1J
#500542
0U
#500552
1V
#500564
1g
#502500
0)
#505000
1)
#505104
0$
0%
0&
0'
0(
#505113
0x
0y
0z
0{
#505117
0|
#505118
1#
#505130
1w
#505146
15
#505163
19
18
17
#505170
0:
#505171
0!!
0"!
0#!
0$!
#505193
1~
#505203
1E
#505222
1:
#505224
1I
1H
1G
#505228
0~
#505231
0;
#505248
09
08
07
#505250
1}
#505251
0Z
0[
0a
#505252
1l
#505266
0\
#505273
1h
1i
1j
#505279
1;
#505283
0}
#505311
1Y
#505327
0I
0H
0G
#505349
0V
#505360
1[
1a
#505361
1Z
#505392
1\
#505398
0h
0i
0j
#505437
0Y
#505475
1V
#507500
0)
#510000
1)
#510118
1(
#510135
1|
#510159
05
#510210
16
#510236
0E
#510271
1F
#510307
0l
#510310
0b
#510320
1k
#512500
0)
#515000
1)
#515104
0(
#515117
0|
#515118
1'
#515130
1{
#515146
15
#515203
1E
#515252
1l
#517500
0)
#520000
1)
